[
  {
    "pokemonName": "Bulbasaur",
    "pokemonImage": "bulbasaur"
  },
  {
    "pokemonName": "Ivysaur",
    "pokemonImage": "ivysaur"
  },
  {
    "pokemonName": "Venusaur",
    "pokemonImage": "venusaur"
  },
  {
    "pokemonName": "Charmander",
    "pokemonImage": "charmander"
  },
  {
    "pokemonName": "Charmeleon",
    "pokemonImage": "charmeleon"
  },
  {
    "pokemonName": "Charizard",
    "pokemonImage": "charizard"
  }
]